## Get to dragon, refuse to use bare hands
#NOCOMPARE Fails due uninteresting difference in whitespace process. 
# Based on walkthrough at http://www.ecsoftwareconsulting.com/node/56
n
seed 1635997320
in
take lamp
xyzzy
take rod
e
take cage
w
on
w
w
drop rod
take bird
take rod
w
free bird
wave rod
drop rod
take bird
take jade
e
e
e
off
xyzzy
drop jade
xyzzy
on
w
w
w
take rod
d
w
wave rod
drop rod
e
n
free bird
take bird
s
take jewelry
n
sw
w
drop bird
extinguish dragon
kill dragon

green
n
kill dragon
y
kill dragon
